{
    "assets": [{
            "logo": {
                "canvas": {
                    "width": 640,
                    "height": 480
                },
                "shapes": [{
                    "rect": {
                        "fill": "#00FF00FF",
                        "stroke": "#00000000",
                        "x": 10,
                        "y": 10,
                        "width": 100,
                        "height": 100
                    }
                }]
            }
        },
        {
            "banner": {
                "canvas": {
                    "width": 800,
                    "height": 600
                },
                "shapes": [{
                    "rect": {
                        "fill": "#FF0000FF",
                        "stroke": "#00000000",
                        "x": 40,
                        "y": 40,
                        "width": 20,
                        "height": 20
                    }
                }]
            }
        }
    ]
}